Carbapenemase Project - complete cases
…
CPO vs. MPCR

# A tibble: 475 × 9
# Groups:   ID, SPECIES [475]
   ID    SPECIES MPCR  MPCRGroup CARBA5   CARBA5Group mCIMeCIM       CPO   Name 
   <chr> <chr>   <fct> <fct>     <fct>    <fct>       <fct>          <chr> <chr>
 1 32951 KP      KPC   KPC/OXA   KPC      KPC/OXA     mCIM(+)/eCIM(… Clas… Kleb…
 2 32957 KP      KPC   KPC/OXA   Negative Negative    mCIM(-)/eCIM(… Nega… Kleb…
 3 32959 KP      KPC   KPC/OXA   Negative Negative    mCIM(-)/eCIM(… Nega… Kleb…
 4 32962 KP      KPC   KPC/OXA   Negative Negative    mCIM(-)/eCIM(… Nega… Kleb…
 5 32964 KP      KPC   KPC/OXA   Negative Negative    mCIM(-)/eCIM(… Nega… Kleb…
 6 32967 KP      KPC   KPC/OXA   Negative Negative    mCIM(-)/eCIM(… Nega… Kleb…
 7 32969 KP      KPC   KPC/OXA   Negative Negative    mCIM(-)/eCIM(… Nega… Kleb…
 8 32971 KP      KPC   KPC/OXA   KPC      KPC/OXA     mCIM(+)/eCIM(… Clas… Kleb…
 9 32977 KP      KPC   KPC/OXA   KPC      KPC/OXA     mCIM(+)/eCIM(… Clas… Kleb…
10 32983 KP      KPC   KPC/OXA   Negative Negative    mCIM(+)/eCIM(… Clas… Kleb…
# ℹ 465 more rows
…
(Figure 6 B)

MPCR vs. CARBA5

# A tibble: 475 × 9
# Groups:   ID, SPECIES [475]
   ID    SPECIES MPCR  MPCRGroup CARBA5   CARBA5Group mCIMeCIM       CPO   Name 
   <chr> <chr>   <fct> <fct>     <fct>    <fct>       <fct>          <chr> <chr>
 1 32951 KP      KPC   KPC/OXA   KPC      KPC/OXA     mCIM(+)/eCIM(… Clas… Kleb…
 2 32957 KP      KPC   KPC/OXA   Negative Negative    mCIM(-)/eCIM(… Nega… Kleb…
 3 32959 KP      KPC   KPC/OXA   Negative Negative    mCIM(-)/eCIM(… Nega… Kleb…
 4 32962 KP      KPC   KPC/OXA   Negative Negative    mCIM(-)/eCIM(… Nega… Kleb…
 5 32964 KP      KPC   KPC/OXA   Negative Negative    mCIM(-)/eCIM(… Nega… Kleb…
 6 32967 KP      KPC   KPC/OXA   Negative Negative    mCIM(-)/eCIM(… Nega… Kleb…
 7 32969 KP      KPC   KPC/OXA   Negative Negative    mCIM(-)/eCIM(… Nega… Kleb…
 8 32971 KP      KPC   KPC/OXA   KPC      KPC/OXA     mCIM(+)/eCIM(… Clas… Kleb…
 9 32977 KP      KPC   KPC/OXA   KPC      KPC/OXA     mCIM(+)/eCIM(… Clas… Kleb…
10 32983 KP      KPC   KPC/OXA   Negative Negative    mCIM(+)/eCIM(… Clas… Kleb…
# ℹ 465 more rows
…
