Carbapenemase Project
…
CPO vs. MPCR and CARBA5

!??TBD

# A tibble: 866 × 6
   ID    Name               SPECIES      Marker        MPCR CARBA5
   <chr> <chr>              <chr>        <chr>        <dbl>  <dbl>
 1 31474 Klebsiella oxytoca K.OXYTOCA    Class B          0      0
 2 31474 Klebsiella oxytoca K.OXYTOCA    Class B          1      1
 3 31717 Citrobacter koseri CITRO.KOSERI Class A or D     0      0
 4 31717 Citrobacter koseri CITRO.KOSERI Class A or D     1      1
 5 31748 Klebsiella oxytoca K.OXYTOCA    Class B          0      0
 6 31748 Klebsiella oxytoca K.OXYTOCA    Class B          1      0
 7 31756 Klebsiella oxytoca K.OXYTOCA    Class B          0      0
 8 31756 Klebsiella oxytoca K.OXYTOCA    Class B          1      1
 9 31781 Klebsiella oxytoca K.OXYTOCA    Class B          0      0
10 31781 Klebsiella oxytoca K.OXYTOCA    Class B          1      1
# … with 856 more rows
…
